{
    "type": "service_account",
    "project_id": "ainaa-f542e",
    "private_key_id": "59d547ad9c406b2f04a38369142677e4c45b6afd",
    "private_key": "-----BEGIN PRIVATE KEY-----\nMIIEvgIBADANBgkqhkiG9w0BAQEFAASCBKgwggSkAgEAAoIBAQDRERJYGnl5DGhD\ng5RYxzc4ltrxn0368IlngXiKPqve/qd72QuoOOZZxLhw9SIzCENm8VQxPAzHYFDY\nGAKOeKG6E9PiMAsbDvpv9n83oixsQpyV34p8DQKUl1TFfcB8E8Qz3FjDBocJtNv8\nFwPtB9bhysdKlzJ7meCtSMPwaOJmtNChTV4kQGrjShsqiZkCkMSzDgDkUbB+ILW4\neQ+MBXeQw9ZIVbGpE55E842dti9K87j16WZhh0qA63a1KjPtrdnI/lr5b1kDflh8\nOGneDp68Q5zJnxeQSQHHQb6IjlrjGZJb3UoKTy1L9QtdrvAChBCuFhTcETXMS3Em\nEVnZ0rJrAgMBAAECggEAFF0c088UWOmP+E+HMhSJeO4cul9BeblXMOlIA/Mxy4Ez\ncBlGjOap7UF/k6UU5TKfWhYUlM0cE4l6pmnESftPCXBn+YajdknBtAknABTATfU5\nClIhS4762t1YqPnkN1G3kTObw7dNjPD8YnQdckeKsyiMu+O5S5fD7i0BxNd6gfVa\nsWpTSj2vSTdY7xqF9QBWHdcIUzuPzvSyIP1qnnyAj54dxpmcg+E47Ids4sCBffXG\nDRfRoJV1yppAHx9o+tmH3PYkjY8s3Z7zsWALrS4DVaX1pRKuTtgxJKpW8kck5GoI\nlGD/EMal1GuPAWakCpr+lPZBHyVR3ZwQL2K7lTKA0QKBgQDoAbPIJwctUHeX+S4J\nyjym1+0ZIWFGuExtvNNgXhWUuby7jkxwl9iPVnMDVvEdx23Gjw7YQFo0nl7omA4W\nhpGJb/QQOMjxtiYikvFBFuPsnvj4Tky6nJLmXXRuWW1gtUoXnMR8WNmZ7HTrEFgK\nXRFVKHc4Rix9cunPhZIb+JLuGwKBgQDmsAqmMDIuZfs7P9EPWXE09+/VCujAdJ6j\ntklcposLUcwTlGIy6UIVlCe8DsUPAjggNId44PJwdLlm24odRaTWWoYXMQfWdPQ4\nYnDYPcj2laFLT37nFkzvufMGplpCFP1MQAa4Fiue64vHeYcLIhFqA3i4UOXc03V9\not3OiR5R8QKBgB0NsYTcFlL/Y6qdYr2JHOVL3v4ppvPjOnb3kYTc41j3lYHrRPlI\nmq8AhXCin5k6Ey4tVg+Qp3s1Ze88s27wtSL/6RFq+wcB526m9h1Pj4VfNxBpRcSM\nvPyqMV1sR3031qp0UEq+Ganj6ZRSPKQ3mWcPpTZf20xuaoc5U9262DOHAoGBAKNE\nLpVGAQ4DkVZyqRSS+eNCItSF/wrOvsQhLDTNjhT51FR7LTDZE7NQAvs+/MrNiEmK\nw+KSWiOrCNi6QjrLYolu0f4x7lkitwH88d6pg8S5S8mQPsFwcA0ubsjjDXg9gLPp\nkJfS4RZ9oJUR9rizaN2+DT9tyfGLG1lK3m7hbrsRAoGBAM58uhzYWl4AACbZmcYp\nCHGNkxuTVcYBRIoFYTvK4lDCCR+NQUULGxZKHAil8pb8Aqi6ANyn3uqrZDac8slk\nnxjFSbtBnSGGUGnDTxQ5pW85rbcnYXSBNuxDhM2BOLOEq4nVA1MGVVIVK8NDjnqc\nhm+tslt9FW5mPK7B+NfuiaE7\n-----END PRIVATE KEY-----\n",
    "client_email": "firebase-adminsdk-u0k7g@ainaa-f542e.iam.gserviceaccount.com",
    "client_id": "115703029814326685667",
    "auth_uri": "https://accounts.google.com/o/oauth2/auth",
    "token_uri": "https://oauth2.googleapis.com/token",
    "auth_provider_x509_cert_url": "https://www.googleapis.com/oauth2/v1/certs",
    "client_x509_cert_url": "https://www.googleapis.com/robot/v1/metadata/x509/firebase-adminsdk-u0k7g%40ainaa-f542e.iam.gserviceaccount.com",
    "universe_domain": "googleapis.com"
  }
