<svg width="339" height="66" viewBox="0 0 339 66" fill="none" xmlns="http://www.w3.org/2000/svg">
<path fill-rule="evenodd" clip-rule="evenodd" d="M0 66L34 0L68.5 66H62L34 14.5L6.5 66H0ZM184.5 66L218.5 0L253 66H246.5L218.5 14.5L191 66H184.5ZM304.5 0L270.5 66H277L304.5 14.5L332.5 66H339L304.5 0ZM34.5 66C37.2614 66 39.5 63.7614 39.5 61C39.5 58.2386 37.2614 56 34.5 56C31.7386 56 29.5 58.2386 29.5 61C29.5 63.7614 31.7386 66 34.5 66ZM224 61C224 63.7614 221.761 66 219 66C216.239 66 214 63.7614 214 61C214 58.2386 216.239 56 219 56C221.761 56 224 58.2386 224 61ZM305 66C307.761 66 310 63.7614 310 61C310 58.2386 307.761 56 305 56C302.239 56 300 58.2386 300 61C300 63.7614 302.239 66 305 66ZM86.5 0H92.5V66H86.5V0ZM110.5 66H116.5V16L166.5 66L167 0H160.5V51.5L110.5 0V66Z" fill="#DEBB6E"/>
</svg>
