display_name,fullname,email,phone_number,role,upline
ABC,ABC,abc1@abc.com,60123456789,agent_bronze,XYZ/00001
ABC,ABC,abc2@abc.com,60123456789,agent_bronze,XYZ/00001
ABC,ABC,abc3@abc.com,60123456789,agent_bronze,XYZ/00001
ABC,ABC,abc4@abc.com,60123456789,agent_bronze,XYZ/00001
